<?xml version="1.0" encoding="UTF-8" standalone="no"?>
<!DOCTYPE svg PUBLIC "-//W3C//DTD SVG 1.1//EN" "http://www.w3.org/Graphics/SVG/1.1/DTD/svg11.dtd">
<!-- Generated by graphviz version 2.40.1 (20161225.0304)
 -->
<!-- Title: arbre Pages: 1 -->
<svg width="340pt" height="260pt" viewBox="0.00 0.00 339.74 260.00" xmlns="http://www.w3.org/2000/svg" xmlns:xlink="http://www.w3.org/1999/xlink">
<g id="graph0" class="graph" transform="scale(1 1) rotate(0) translate(4 256)">
<title>arbre</title>
<polygon fill="#ffffff" stroke="transparent" points="-4,4 -4,-256 335.7369,-256 335.7369,4 -4,4"/>
<!-- 1 -->
<g id="node1" class="node">
<title>1</title>
<ellipse fill="none" stroke="#000000" cx="238.0327" cy="-234" rx="34.7476" ry="18"/>
<text text-anchor="middle" x="238.0327" y="-229.8" font-family="Times,serif" font-size="14.00" fill="#000000">racine</text>
</g>
<!-- 2 -->
<g id="node2" class="node">
<title>2</title>
<ellipse fill="none" stroke="#000000" cx="181.0327" cy="-162" rx="70.0654" ry="18"/>
<text text-anchor="middle" x="181.0327" y="-157.8" font-family="Times,serif" font-size="14.00" fill="#000000">A : parent de B</text>
</g>
<!-- 1&#45;&gt;2 -->
<g id="edge1" class="edge">
<title>1-&gt;2</title>
<path fill="none" stroke="#000000" d="M224.8125,-217.3008C215.9329,-206.0844 204.2437,-191.3191 195.1775,-179.8671"/>
</g>
<!-- 3 -->
<g id="node3" class="node">
<title>3</title>
<ellipse fill="none" stroke="#000000" cx="296.0327" cy="-162" rx="27" ry="18"/>
</g>
<!-- 1&#45;&gt;3 -->
<g id="edge2" class="edge">
<title>1-&gt;3</title>
<path fill="none" stroke="#000000" d="M251.4849,-217.3008C260.9888,-205.5028 273.6557,-189.7784 283.0525,-178.1134"/>
</g>
<!-- 4 -->
<g id="node4" class="node">
<title>4</title>
<ellipse fill="none" stroke="#000000" cx="70.0327" cy="-90" rx="70.0654" ry="18"/>
<text text-anchor="middle" x="70.0327" y="-85.8" font-family="Times,serif" font-size="14.00" fill="#000000">B : enfant de A</text>
</g>
<!-- 2&#45;&gt;4 -->
<g id="edge3" class="edge">
<title>2-&gt;4</title>
<path fill="none" stroke="#000000" d="M155.0081,-145.1192C137.1943,-133.5643 113.6731,-118.3073 95.8942,-106.775"/>
</g>
<!-- 5 -->
<g id="node5" class="node">
<title>5</title>
<ellipse fill="none" stroke="#000000" cx="194.0327" cy="-90" rx="35.9096" ry="18"/>
<text text-anchor="middle" x="194.0327" y="-85.8" font-family="Times,serif" font-size="14.00" fill="#000000">feuille</text>
</g>
<!-- 2&#45;&gt;5 -->
<g id="edge4" class="edge">
<title>2-&gt;5</title>
<path fill="none" stroke="#000000" d="M184.3132,-143.8314C186.2688,-133 188.7447,-119.2876 190.7081,-108.4133"/>
</g>
<!-- 6 -->
<g id="node6" class="node">
<title>6</title>
<ellipse fill="none" stroke="#000000" cx="296.0327" cy="-90" rx="35.9096" ry="18"/>
<text text-anchor="middle" x="296.0327" y="-85.8" font-family="Times,serif" font-size="14.00" fill="#000000">feuille</text>
</g>
<!-- 3&#45;&gt;6 -->
<g id="edge5" class="edge">
<title>3-&gt;6</title>
<path fill="none" stroke="#000000" d="M296.0327,-143.8314C296.0327,-133 296.0327,-119.2876 296.0327,-108.4133"/>
</g>
<!-- 9 -->
<g id="node7" class="node">
<title>9</title>
<ellipse fill="none" stroke="#000000" cx="70.0327" cy="-18" rx="35.9096" ry="18"/>
<text text-anchor="middle" x="70.0327" y="-13.8" font-family="Times,serif" font-size="14.00" fill="#000000">feuille</text>
</g>
<!-- 4&#45;&gt;9 -->
<g id="edge6" class="edge">
<title>4-&gt;9</title>
<path fill="none" stroke="#000000" d="M70.0327,-71.8314C70.0327,-61 70.0327,-47.2876 70.0327,-36.4133"/>
</g>
</g>
</svg>